EESchema Schematic File Version 2
LIBS:power
LIBS:device
LIBS:transistors
LIBS:conn
LIBS:linear
LIBS:regul
LIBS:74xx
LIBS:cmos4000
LIBS:adc-dac
LIBS:memory
LIBS:xilinx
LIBS:microcontrollers
LIBS:dsp
LIBS:microchip
LIBS:analog_switches
LIBS:motorola
LIBS:texas
LIBS:intel
LIBS:audio
LIBS:interface
LIBS:digital-audio
LIBS:philips
LIBS:display
LIBS:cypress
LIBS:siliconi
LIBS:opto
LIBS:atmel
LIBS:contrib
LIBS:valves
LIBS:5V-1A-cache
EELAYER 25 0
EELAYER END
$Descr A4 11693 8268
encoding utf-8
Sheet 1 1
Title ""
Date ""
Rev ""
Comp ""
Comment1 ""
Comment2 ""
Comment3 ""
Comment4 ""
$EndDescr
$Comp
L CONN_01X02 P2
U 1 1 5825DA21
P 7700 3750
F 0 "P2" H 7700 3900 50  0000 C CNN
F 1 "OUTPUT" V 7800 3750 50  0000 C CNN
F 2 "myConnectors:JST-B2P-VH" H 7700 3750 50  0001 C CNN
F 3 "" H 7700 3750 50  0000 C CNN
	1    7700 3750
	1    0    0    1   
$EndComp
$Comp
L CP C1
U 1 1 5825DF44
P 5150 4000
F 0 "C1" H 5175 4100 50  0000 L CNN
F 1 "2200µF 25V" H 4950 3850 50  0000 L CNN
F 2 "Capacitors_ThroughHole:C_Radial_D13_L25_P5" H 5188 3850 50  0001 C CNN
F 3 "" H 5150 4000 50  0000 C CNN
	1    5150 4000
	1    0    0    -1  
$EndComp
$Comp
L C C7
U 1 1 5825E17C
P 6950 4000
F 0 "C7" H 6975 4100 50  0000 L CNN
F 1 "100nF" H 6975 3900 50  0000 L CNN
F 2 "Capacitors_ThroughHole:C_Rect_L7_W2_P5" H 6988 3850 50  0001 C CNN
F 3 "" H 6950 4000 50  0000 C CNN
	1    6950 4000
	1    0    0    -1  
$EndComp
$Comp
L CP C2
U 1 1 582BEB10
P 5450 4000
F 0 "C2" H 5475 4100 50  0000 L CNN
F 1 "2200µF 25V" H 5250 3750 50  0000 L CNN
F 2 "Capacitors_ThroughHole:C_Radial_D13_L25_P5" H 5488 3850 50  0001 C CNN
F 3 "" H 5450 4000 50  0000 C CNN
	1    5450 4000
	1    0    0    -1  
$EndComp
$Comp
L C C8
U 1 1 589B977C
P 7250 4000
F 0 "C8" H 7275 4100 50  0000 L CNN
F 1 "100pF" H 7275 3900 50  0000 L CNN
F 2 "Capacitors_ThroughHole:C_Rect_L7_W2_P5" H 7288 3850 50  0001 C CNN
F 3 "" H 7250 4000 50  0000 C CNN
	1    7250 4000
	1    0    0    -1  
$EndComp
$Comp
L CP C3
U 1 1 5FE74C13
P 5750 4000
F 0 "C3" H 5775 4100 50  0000 L CNN
F 1 "2200µF 25V" H 5550 3850 50  0000 L CNN
F 2 "Capacitors_ThroughHole:C_Radial_D13_L25_P5" H 5788 3850 50  0001 C CNN
F 3 "" H 5750 4000 50  0000 C CNN
	1    5750 4000
	1    0    0    -1  
$EndComp
$Comp
L CP C4
U 1 1 5FE74C58
P 6050 4000
F 0 "C4" H 6075 4100 50  0000 L CNN
F 1 "2200µF 25V" H 5850 3750 50  0000 L CNN
F 2 "Capacitors_ThroughHole:C_Radial_D13_L25_P5" H 6088 3850 50  0001 C CNN
F 3 "" H 6050 4000 50  0000 C CNN
	1    6050 4000
	1    0    0    -1  
$EndComp
$Comp
L CP C5
U 1 1 5FE74D34
P 6350 4000
F 0 "C5" H 6375 4100 50  0000 L CNN
F 1 "2200µF 25V" H 6150 3850 50  0000 L CNN
F 2 "Capacitors_ThroughHole:C_Radial_D13_L25_P5" H 6388 3850 50  0001 C CNN
F 3 "" H 6350 4000 50  0000 C CNN
	1    6350 4000
	1    0    0    -1  
$EndComp
$Comp
L CP C6
U 1 1 5FE74D3A
P 6650 4000
F 0 "C6" H 6675 4100 50  0000 L CNN
F 1 "2200µF 25V" H 6450 3750 50  0000 L CNN
F 2 "Capacitors_ThroughHole:C_Radial_D13_L25_P5" H 6688 3850 50  0001 C CNN
F 3 "" H 6650 4000 50  0000 C CNN
	1    6650 4000
	1    0    0    -1  
$EndComp
$Comp
L CONN_01X02 P1
U 1 1 5FE748A9
P 3750 4150
F 0 "P1" H 3750 4300 50  0000 C CNN
F 1 "INPUT" V 3850 4150 50  0000 C CNN
F 2 "myConnectors:JST-B2P-VH" H 3750 4150 50  0001 C CNN
F 3 "" H 3750 4150 50  0000 C CNN
	1    3750 4150
	-1   0    0    1   
$EndComp
$Comp
L GND #PWR01
U 1 1 5FE755F2
P 7250 4400
F 0 "#PWR01" H 7250 4150 50  0001 C CNN
F 1 "GND" H 7250 4250 50  0000 C CNN
F 2 "" H 7250 4400 50  0000 C CNN
F 3 "" H 7250 4400 50  0000 C CNN
	1    7250 4400
	1    0    0    -1  
$EndComp
$Comp
L VCC #PWR02
U 1 1 5FE75697
P 7250 3600
F 0 "#PWR02" H 7250 3450 50  0001 C CNN
F 1 "VCC" H 7250 3750 50  0000 C CNN
F 2 "" H 7250 3600 50  0000 C CNN
F 3 "" H 7250 3600 50  0000 C CNN
	1    7250 3600
	1    0    0    -1  
$EndComp
$Comp
L D D3
U 1 1 5FE75255
P 4700 3900
F 0 "D3" H 4550 4000 50  0000 C CNN
F 1 "MUR420" H 4800 4000 50  0000 C CNN
F 2 "Diodes_ThroughHole:Diode_DO-201AD_Horizontal_RM15" H 4700 3900 50  0001 C CNN
F 3 "" H 4700 3900 50  0000 C CNN
	1    4700 3900
	1    0    0    -1  
$EndComp
$Comp
L D D2
U 1 1 5FE752A0
P 4700 3700
F 0 "D2" H 4850 3600 50  0000 C CNN
F 1 "MUR420" H 4600 3600 50  0000 C CNN
F 2 "Diodes_ThroughHole:Diode_DO-201AD_Horizontal_RM15" H 4700 3700 50  0001 C CNN
F 3 "" H 4700 3700 50  0000 C CNN
	1    4700 3700
	-1   0    0    1   
$EndComp
$Comp
L D D1
U 1 1 5FE752E3
P 4700 3500
F 0 "D1" H 4850 3400 50  0000 C CNN
F 1 "MUR420" H 4600 3400 50  0000 C CNN
F 2 "Diodes_ThroughHole:Diode_DO-201AD_Horizontal_RM15" H 4700 3500 50  0001 C CNN
F 3 "" H 4700 3500 50  0000 C CNN
	1    4700 3500
	-1   0    0    1   
$EndComp
$Comp
L D D4
U 1 1 5FE7536F
P 4700 4100
F 0 "D4" H 4550 4200 50  0000 C CNN
F 1 "MUR420" H 4800 4200 50  0000 C CNN
F 2 "Diodes_ThroughHole:Diode_DO-201AD_Horizontal_RM15" H 4700 4100 50  0001 C CNN
F 3 "" H 4700 4100 50  0000 C CNN
	1    4700 4100
	1    0    0    -1  
$EndComp
Wire Wire Line
	4850 3700 7500 3700
Connection ~ 6650 3700
Wire Wire Line
	6650 3700 6650 3850
Connection ~ 6650 4300
Wire Wire Line
	6650 4300 6650 4150
Connection ~ 6350 4300
Wire Wire Line
	6350 4300 6350 4150
Connection ~ 6350 3700
Wire Wire Line
	6350 3700 6350 3850
Connection ~ 6050 3700
Wire Wire Line
	6050 3700 6050 3850
Connection ~ 6050 4300
Wire Wire Line
	6050 4300 6050 4150
Connection ~ 5750 4300
Wire Wire Line
	5750 4300 5750 4150
Connection ~ 5750 3700
Wire Wire Line
	5750 3700 5750 3850
Connection ~ 7250 4300
Wire Wire Line
	7250 4150 7250 4400
Connection ~ 7250 3700
Wire Wire Line
	7250 3600 7250 3850
Connection ~ 5450 4300
Wire Wire Line
	5450 4300 5450 4150
Connection ~ 5450 3700
Wire Wire Line
	5450 3700 5450 3850
Wire Wire Line
	3950 4100 4550 4100
Wire Wire Line
	7450 4300 7450 3800
Wire Wire Line
	7450 3800 7500 3800
Wire Wire Line
	5150 3850 5150 3700
Connection ~ 5150 3700
Wire Wire Line
	5150 4150 5150 4300
Connection ~ 5150 4300
Wire Wire Line
	6950 3700 6950 3850
Connection ~ 6950 3700
Wire Wire Line
	6950 4300 6950 4150
Connection ~ 6950 4300
Wire Wire Line
	4850 3500 4950 3500
Wire Wire Line
	4950 3500 4950 3700
Connection ~ 4950 3700
Wire Wire Line
	4850 3900 4950 3900
Wire Wire Line
	4950 3900 4950 4300
Wire Wire Line
	4950 4100 4850 4100
Connection ~ 4950 4100
Wire Wire Line
	4950 4300 7450 4300
Wire Wire Line
	3950 4200 4450 4200
Wire Wire Line
	4450 4200 4450 3700
Wire Wire Line
	4450 3700 4550 3700
Wire Wire Line
	4400 4100 4400 3500
Wire Wire Line
	4400 3500 4550 3500
Connection ~ 4400 4100
Wire Wire Line
	4550 3900 4450 3900
Connection ~ 4450 3900
$EndSCHEMATC
